Chapter 1 R and RStudio | Module 1
…
Alternatively we could read this data directly into R using the URL (and the readr package, which is part of the tidyverse collection):

paua <- readr::read_csv("https://raw.githubusercontent.com/STATS-UOA/databunker/master/data/paua.csv")

1.2.11 Using functions to look at the data

Automatically RStudio has run the command View() for you. This makes your dataset show itself in the top left pane. It’s like looking at the data in Excel. Follow along with the commands below, I recommend that you open up a new Script and use that to write and save your commands for later. Don’t forget to ensure you have read the paua into your session (all commands below assume that your data Object is called paua, if you’ve called it something different then just replace paua with whatever you’ve called it below.

Now let’s go ahead and use some functions to ask and answer questions about our data. The first thing you should always do is view any data frames you import.

Let’s have a look at your data in the Console

paua

## # A tibble: 60 × 3
##    Species            Length   Age
##    <chr>               <dbl> <dbl>
##  1 Haliotis iris        1.8   1.50
##  2 Haliotis australis   5.4  11.9 
##  3 Haliotis australis   4.8   5.42
##  4 Haliotis iris        5.75  4.50
##  5 Haliotis iris        5.65  5.50
##  6 Haliotis iris        2.8   2.50
##  7 Haliotis australis   5.9   6.49
##  8 Haliotis iris        3.75  5.00
##  9 Haliotis australis   7.2   8.56
## 10 Haliotis iris        4.25  5.50
## # ℹ 50 more rows
…
